<svg width="48" height="48" viewBox="0 0 48 48" fill="none" xmlns="http://www.w3.org/2000/svg">
<path d="M17.1484 8.57129V35.9999" stroke="white" stroke-width="3" stroke-linecap="round" stroke-linejoin="round"/>
<path d="M36.0056 36V42.8571" stroke="white" stroke-width="3" stroke-linecap="round" stroke-linejoin="round"/>
<path d="M32.5747 8.57129H36.0033C36.9496 8.57129 37.7176 9.33929 37.7176 10.2856V34.2856C37.7176 35.2319 36.9496 35.9999 36.0033 35.9999H13.7176C11.8233 35.9999 10.289 37.5341 10.289 39.4284C10.289 41.3227 11.8233 42.857 13.7176 42.857H37.7176" stroke="white" stroke-width="3" stroke-linecap="round" stroke-linejoin="round"/>
<path d="M10.289 39.4284V11.9999C10.289 10.1056 11.8233 8.57129 13.7176 8.57129H25.7176" stroke="white" stroke-width="3" stroke-linecap="round" stroke-linejoin="round"/>
<path fill-rule="evenodd" clip-rule="evenodd" d="M30.8616 6.85693H27.433C26.4868 6.85693 25.7188 7.62493 25.7188 8.57122V17.1426L29.1473 15.4284L32.5759 17.1426V8.57122C32.5759 7.62493 31.8079 6.85693 30.8616 6.85693Z" stroke="white" stroke-width="3" stroke-linecap="round" stroke-linejoin="round"/>
</svg>
