<svg width="37" height="37" viewBox="0 0 37 37" fill="none" xmlns="http://www.w3.org/2000/svg">
<path d="M10.2679 16.0536V28.1608C10.2679 28.575 10.6037 28.9108 11.0179 28.9108H15.3036C15.7178 28.9108 16.0536 28.575 16.0536 28.1608V21.9465C16.0536 21.5323 16.3894 21.1965 16.8036 21.1965H20.4464C20.8607 21.1965 21.1964 21.5323 21.1964 21.9465V28.1608C21.1964 28.575 21.5322 28.9108 21.9464 28.9108H26.2322C26.6464 28.9108 26.9822 28.575 26.9822 28.1608V16.0536M30.1964 18.6251L19.1233 8.78226C18.8391 8.52967 18.4109 8.52967 18.1267 8.78226L7.05359 18.6251" stroke="white" stroke-width="2" stroke-linecap="round" stroke-linejoin="round"/>
</svg>
