<svg width="20" height="20" viewBox="0 0 20 20" fill="none" xmlns="http://www.w3.org/2000/svg">
<path d="M8.72505 19.4409V0.558838H11.2755V19.4409H8.72505ZM0.551758 11.2676V8.73214H19.4488V11.2676H0.551758Z" fill="white"/>
</svg>
